10

9 18
15
3 7
1 4
6 2
7 11
6 8
8 2
4 0
5 9
4 2
7 7
6 14
2 15
8 15
6 11
5 10
10 10

18 2
15
11 1
6 1
9 0
14 1
7 0
11 1
2 0
0 0
16 1
2 1
10 1
0 0
4 1
7 1
12 0
10 10

20 13
15
12 4
12 1
9 7
0 10
1 3
18 9
17 0
4 11
4 4
9 3
1 1
18 7
11 5
19 6
11 9
10 10

12 11
15
8 9
3 1
9 7
4 8
1 4
9 6
3 10
1 5
9 7
4 0
6 2
4 4
4 5
10 9
2 0
10 10

16 9
15
12 6
1 0
1 0
2 8
10 6
13 3
10 6
2 5
5 3
15 8
12 1
0 8
14 4
5 5
1 4
10 10

20 17
15
14 10
12 10
10 6
15 12
4 9
15 16
2 5
12 15
2 3
10 1
12 2
16 11
7 0
14 5
16 0
10 10

4 2
15
1 1
1 0
3 1
0 1
3 1
3 0
2 0
0 0
1 0
3 1
0 0
2 1
3 1
0 0
0 1
10 10

10 6
15
4 2
5 4
0 4
7 5
4 3
2 2
1 1
7 0
7 5
2 3
6 2
9 0
5 5
3 4
6 2
10 10

7 14
15
4 12
3 9
6 9
0 4
6 7
3 6
4 8
6 2
6 6
1 11
1 9
0 3
4 2
0 10
5 7
10 10

20 8
15
0 7
6 4
8 3
16 6
5 5
13 2
5 1
3 3
15 6
1 0
4 6
6 3
19 1
1 1
10 3
10 10
