*** Life<FredkinCell> 14x18 ***

Generation = 0, Population = 10.
------------------
--------------0---
------------------
------------------
------------------
------------0-----
---------0----0---
------------------
-------------0---0
----------------00
------------------
----0-------------
----------------0-
------------------

Generation = 20, Population = 89.
------------14---3
--0---2---2-----41
0----02--1-1585--2
2-------0----1-23-
---1---1-----45228
11-03-------53-3+-
-4--65-4--------13
----1---3-1---1-86
3--102-2--44-----3
43--34-41-----4--1
1----02--2-3-12--6
------4---2-----3-
--13---113----2---
10-01-------2-5-5-

Generation = 40, Population = 95.
---3---525-6--664-
2---3-9-3-55589-+-
---------1---++-77
5---5-4---3-7----6
-1----3---1------+
4---9---+-----+-+-
1--4-+-76+--99-99-
--------65-27---+-
-5-4-24--95+------
+--3-+3-9-6-8-+9--
-----1--57-97+-368
--5-5-8--48--9----
--5---5+---8-++--+
--2---5---------+3

Generation = 60, Population = 104.
---9-9--6+-+-+-+7-
3-57--+---+-+-+---
---6+7-9---9++-8--
---5-3+---8++7+-9-
-4-2---+----8---5-
---9+-+2+-----+-+-
7+---+--+--+-++---
-1+---2-9---+-+9-+
-+-----+-+--+--+++
+---+-4++-++-----+
-9-+3------+-+-+-+
+665----+-+---+8-+
-+---9--2--+---7-+
9----6-4+-+7-5--+-

Generation = 80, Population = 112.
----+---+----+--++
6-+-----8-+-+----+
+---+9+-+8-+-++-++
----+7+79---+---+-
-7-7-+---+-+--+-+-
-5+++5+9----+-+-+-
--+-+--+---+++-+++
+---+-----+-+-+--+
+++++--+--+--+----
+-+---+++++--+++-+
8----++--+-+-++--+
+-+-+---+-+-+-----
+--++-++-+8-+-+-9-
+7+7+-------+-+-+-

Generation = 100, Population = 125.
-6++-+-+++-+-++-+-
----+------+-++-+-
-+++-+-+++----+-++
+-+--+-++-+-++-+-+
+++--+---+7+-+-+-+
+7--+--+-+-+-+-+-+
-+---+++----+-----
+5++++4+-+++-+-++-
---+-++---+----+--
+++--+++-+--+-++--
++8-+----+-++--+++
++++-+-+++----++--
--+-+-++-+++--++-+
+9+--+---+-+------

*** Life<FredkinCell> 7x5 ***

Generation = 0, Population = 10.
00-0-
-----
00---
-0-0-
0----
---0-
0----

Generation = 12, Population = 16.
--812
---2-
--901
-6-0-
-4411
-----
-12-0

Generation = 24, Population = 14.
-++35
-----
-3+-3
-+-0-
--6-3
---3-
--6-0

Generation = 36, Population = 16.
--+48
---5-
--+04
-+-0-
-++44
-----
-48-0

Generation = 48, Population = 14.
-++6+
-----
-6+-6
-+-0-
--+-6
---6-
--+-0

Generation = 60, Population = 16.
--+7+
---8-
--+07
-+-0-
-++77
-----
-7+-0

Generation = 72, Population = 14.
-++9+
-----
-9+-9
-+-0-
--+-9
---9-
--+-0

Generation = 84, Population = 16.
--+++
---+-
--+0+
-+-0-
-++++
-----
-++-0

Generation = 96, Population = 14.
-++++
-----
-++-+
-+-0-
--+-+
---+-
--+-0

*** Life<FredkinCell> 9x17 ***

Generation = 0, Population = 10.
--0--------------
---------------0-
-----------------
-----------------
-------0---------
----0------------
-----------------
--0------0-----0-
-----0-0--------0

Generation = 10, Population = 66.
--01333-221-0-0-0
-----12--0---0-0-
---110----0---00-
0-1-0-------01-2-
--1--0-0-----0--1
01----01-1-3-112-
013-01--101--0---
---1123-0----2-1-
10-11-01---12----

Generation = 20, Population = 65.
---4-9--4---0-1--
2--23--42-12--24-
2----01-----5----
1-45--1----224--2
-19---2----3-3223
---04-3---24--4-2
33-2--------021--
36-5-6473--5--45-
5---141--7-7-4-3-

Generation = 30, Population = 75.
---8--4-6----2--5
--2-7-573-6+33--1
23-47-42--74-5548
5-8-46------76--6
43--46--8--6-556-
---1----46--15---
-5--2-4--4-8546--
-+2---8+5---26+-2
93-6-84--+59+---3

Generation = 40, Population = 77.
6--9--6+-++323-7-
4-2++--+4--+4----
--8-----647-+76--
76+-7729-5+--9---
--+--9-+---9---86
--6---98----1---+
7--34768--6+---72
++5+-+++7+-+--+--
+9---+-+-+6++-69-

Generation = 50, Population = 71.
+6--+--+++-----+-
--6+-7--64++6--8-
-5--+-84-----++--
-7+7-+3--9----5--
-7-7--5++-4++-9-9
---1+7++-----9-++
9-+------8-+878-2
--6-++--9--+5+-+9
-++----+9-8-+-8--

Generation = 60, Population = 79.
--+--+++-+---7-++
+--+--++7-+---++6
-----+9-++---++-+
+9----8+++-7+-7++
++++6--+++--+--++
9---+--+6-7+--++-
-++-6-++-+----9+-
-+7+---+++---+++-
-+++---+-+----++9

Generation = 70, Population = 76.
+++---+----++--+-
+-+---++--+---+--
+--+-++--+-7-+++-
--++-+-+-+-9---++
-+++--7--+-+-+---
-++7+-++--++----+
--+-9+++-----+++9
+++-++++-+5+-+-+-
+-+-+--+----+++++

Generation = 80, Population = 78.
----++--+-++--9++
--+-+--+--+-+-+--
----++----+-+----
-+++++-+--+++--++
+++++--+++-++--++
--+8+-++---+6--++
++------++++---+-
-+---+-+++--+++-+
-++++++++-++-+-+-

Generation = 90, Population = 74.
----+-+--++-+-9+-
+--+-++++--++6++-
++--++-7-+++--+--
-++----+--+-+--+-
-++-+----+++--++-
+++-+---+++-6-+++
-++-+-----+-----+
++-+---+-----+++-
-++++++-++++-----

Generation = 100, Population = 86.
---+++++++++-++++
+-+-+--++---+--+-
--+-+++--++-++---
+++-++9+-++--+---
--+++-+-+--+--+++
+-+---+++-+-7-+-+
+--+---++-++--+++
-++--+-++---+++++
--+++-+-++++-+++-

*** Life<FredkinCell> 15x5 ***

Generation = 0, Population = 10.
--00-
--0--
-----
-----
-----
-----
-----
0----
-----
-----
-00--
0----
--0--
-0--0
-----

Generation = 5, Population = 32.
11-3-
3-2-3
-0-3-
-0---
00-10
-----
-1200
-0---
0-10-
-2-02
---1-
-1---
-1-0-
40--1
----0

Generation = 10, Population = 36.
--26-
----5
--3--
-0---
30-42
---10
11-33
0-2--
---2-
--43-
34--0
4---0
54304
7--2-
132-1

Generation = 15, Population = 33.
-5---
--326
0-4--
--3-1
624--
1--23
1--43
143--
-----
236--
4-65-
---0-
8-43-
9-3--
-5---

Generation = 20, Population = 27.
4--+1
-----
1--53
--3-3
7--53
1---3
22--4
-----
0---1
346--
68--3
-----
+---6
-----
-6---

Generation = 25, Population = 32.
784+-
-----
-8-6-
-----
---8-
1222-
--469
-6---
--452
--+69
79--3
-----
-7---
+565-
474--

Generation = 30, Population = 37.
+9--7
9-53-
78--5
243--
-3-+-
4---6
6--7+
-76-2
2--83
---8-
-+-9-
--4-2
-----
+--88
49-23

Generation = 35, Population = 40.
-----
+--4+
-8477
34--4
+-4--
-2---
7---+
48-02
-5-8-
66-8+
-+6-5
5540-
+946-
+6+--
-+---

Generation = 40, Population = 31.
+--++
+---+
++--8
--4-5
+---+
-24-7
+--9+
--+-2
4--84
-9+-+
-+---
-----
-+---
+7+--
-----

Generation = 45, Population = 38.
+-4+-
+374-
+--99
-5---
+4-++
73--9
+-4--
-+---
-64-5
--+++
---+-
-6---
+--9+
--+++
-+4-4

Generation = 50, Population = 22.
-+-+-
+---+
+--9+
3---5
-----
--7-+
-----
5-+--
46--7
-----
---+-
-6---
-+---
---+-
8---5

Generation = 55, Population = 39.
++-++
-3---
++4+-
---0-
+64+-
-----
+--++
6++--
-----
-++++
+-6--
--6-4
++4--
+9-++
++-46

Generation = 60, Population = 33.
++-++
-39-+
++--+
-----
+---+
+---+
---+-
-----
-7-+-
+++--
++-++
--6-6
++-++
-++-+
-----

Generation = 65, Population = 30.
++4+-
+4--+
+---+
-----
-----
-----
--4-+
-+---
--4-9
++--+
++-++
-----
+--++
--+++
++4--

Generation = 70, Population = 35.
++--+
--+-+
++--+
--6-9
+--++
+-+--
+---+
-++-2
8---+
--+++
+--++
7+6--
-----
-----
++-47

Generation = 75, Population = 42.
++-++
-----
+-4+-
5960-
--4-+
--+++
++--+
9+-02
---+-
+-+--
++6--
8+--7
--4++
-++++
+--58

Generation = 80, Population = 17.
+--++
+---+
-----
-----
-----
-----
-----
--+-2
-----
-----
++--+
--7-8
+---+
+++--
-----

Generation = 85, Population = 32.
-+4++
-----
-+-+-
-+---
++-++
-----
-+4++
-+---
9-4+-
++++-
---+-
-+---
-+-+-
++--+
+-4--

Generation = 90, Population = 36.
+--++
+-+--
+---+
-+---
++-++
+-++-
++-++
+-+--
---+-
+--++
++--+
8---8
-+-+-
--+++
-+---

Generation = 95, Population = 33.
-+---
--+++
+-4--
--8-+
++4--
+--++
+--++
+++--
-----
+++--
+-6+-
---0-
+-4+-
+-+--
-+---

Generation = 100, Population = 27.
+--++
-----
+--++
--8-+
+--++
+---+
++--+
-----
+---+
+++--
++--+
-----
+---+
-----
-+---

*** Life<FredkinCell> 6x6 ***

Generation = 0, Population = 8.
-0-00-
-00---
-0-0-0
------
------
------

Generation = 6, Population = 22.
-----1
--1233
0201-0
01---0
--1221
11201-

Generation = 12, Population = 14.
543---
------
1-3--1
1-4--1
--33--
3--44-

Generation = 18, Population = 14.
6--825
5-1--7
-6--4-
------
-6-46-
-56---

Generation = 24, Population = 20.
9--92-
7--+7-
5-7745
51---5
-75--7
7--68-

Generation = 30, Population = 14.
-+++2-
9--+9-
---88-
-18---
-8-8-8
------

Generation = 36, Population = 16.
+++--+
--1+++
-+-9--
-1+---
----+9
-9+---

Generation = 42, Population = 24.
-+++2+
+-1--+
+++-++
+-+--+
-++-+-
+++++-

Generation = 48, Population = 22.
-----+
--1+++
++++-+
+1---+
--++++
+++++-

Generation = 54, Population = 14.
+++---
------
+-+--+
+-+--+
--++--
+--++-

Generation = 60, Population = 14.
+--+2+
+-1--+
-+--+-
------
-+-++-
-++---

Generation = 66, Population = 20.
+--+2-
+--++-
+-++++
+1---+
-++--+
+--++-

Generation = 72, Population = 14.
-+++2-
+--++-
---++-
-1+---
-+-+-+
------

Generation = 78, Population = 16.
+++--+
--1+++
-+-+--
-1+---
----++
-++---

Generation = 84, Population = 24.
-+++2+
+-1--+
+++-++
+-+--+
-++-+-
+++++-

Generation = 90, Population = 22.
-----+
--1+++
++++-+
+1---+
--++++
+++++-

Generation = 96, Population = 14.
+++---
------
+-+--+
+-+--+
--++--
+--++-

*** Life<FredkinCell> 14x1 ***

Generation = 0, Population = 6.
0
0
0
-
-
-
0
-
-
-
-
0
-
0

Generation = 15, Population = 6.
6
-
5
-
-
-
-
3
-
-
-
1
3
2

Generation = 30, Population = 6.
8
8
6
-
-
-
8
-
-
-
-
6
-
8

Generation = 45, Population = 6.
+
-
+
-
-
-
-
+
-
-
-
7
+
+

Generation = 60, Population = 6.
+
+
+
-
-
-
+
-
-
-
-
+
-
+

Generation = 75, Population = 6.
+
-
+
-
-
-
-
+
-
-
-
+
+
+

Generation = 90, Population = 6.
+
+
+
-
-
-
+
-
-
-
-
+
-
+

*** Life<FredkinCell> 1x17 ***

Generation = 0, Population = 7.
---0-0-00----00-0

Generation = 10, Population = 10.
340-2344-2--5---3

Generation = 20, Population = 7.
--46----4-5--563-

Generation = 30, Population = 10.
-7-7--99-898+-87-

Generation = 40, Population = 7.
-----++-69++----+

Generation = 50, Population = 11.
++--+++-8-++-+-++

Generation = 60, Population = 8.
-+-++--+--++--+-+

Generation = 70, Population = 10.
---++-+--++++++-+

Generation = 80, Population = 10.
+---+--+-++++-+++

Generation = 90, Population = 7.
-+++--+-+----++--

Generation = 100, Population = 10.
-++-++++-++--+-+-

*** Life<FredkinCell> 11x1 ***

Generation = 0, Population = 7.
0
0
0
-
0
0
0
-
0
-
-

Generation = 25, Population = 6.
3
3
9
-
+
6
+
-
-
-
-

Generation = 50, Population = 5.
7
-
+
-
+
-
+
6
-
-
-

Generation = 75, Population = 3.
-
-
-
-
-
-
+
+
+
-
-

Generation = 100, Population = 4.
-
-
-
-
-
+
+
-
+
+
-

*** Life<FredkinCell> 5x17 ***

Generation = 0, Population = 10.
------0----------
-------0---0-----
---0-----------0-
----0----0-------
0------0-------0-

Generation = 20, Population = 33.
5-7----57--44-32-
-----------2-----
5---4-8-4-1-3-6-0
52--437-34------2
--07--377--5--2-3

Generation = 40, Population = 30.
8--+--+-+-7----95
-------9-------7-
----9--78-3---85-
--+-+-+--7--25--6
0--+9-4+---72-5--

Generation = 60, Population = 19.
+-++---+--+------
---+-----------+-
+-----+----+-----
+---+9--+9---8---
--+-+-7----------

Generation = 80, Population = 24.
----3-+-+--+-----
-------+---+---+-
---+--------+--++
-+--+++---+--++-+
0--+---+--+---+--

Generation = 100, Population = 22.
+--+---++---+----
---+---+---------
+--+--++---+-----
----++----+---+--
------++---+--+++

*** Life<FredkinCell> 13x20 ***

Generation = 0, Population = 10.
--0-0---------------
------------0-----0-
------------0-------
--------------------
------------------0-
---------------0----
--------------------
--------------------
------------0-------
--------------------
----0--------0------
--------------------
--------------------

Generation = 10, Population = 80.
0-----0-2-2-40----1-
--1---2-0----1--21--
--0-1------02-112---
----0--0--1-3-20-04-
--0-0---1-2--02-0-3-
-----0---13---202--3
0-----0---0-110-----
-------0---------0--
0-0--10----00--0---0
----------0---0-0---
0-01---1--2--10--022
------------1-----1-
--0--0------3---0-11

Generation = 20, Population = 67.
0---4----1---6--212-
--3---6-506-8--33---
0---4-5---5--2------
--------------------
----4-2-22--64---06-
-----11----5-5-3--26
-0--0---3-31--4-0---
--------------------
3-----------65------
--------21-0--622-41
-18-22-26------5----
--------------------
-2--2-0---16----1-4-

Generation = 30, Population = 123.
-3-16642+452--6-----
4----1---4--+-853-7-
--4351-272---2--6-6-
1--0----3-6162-1-28-
4-4-+3533--5---65---
-42---4-3--+---4-729
--------637--97-15--
-----11--2-2-3-323--
4-4--6----438+45--24
-1130-5--4-2--97----
---76--5---4-5-977-6
0011---33---50------
45-4372---5-8783-0-5

Generation = 40, Population = 67.
5---7-5---6--+----7-
5---81-2--+-+---579-
---4----+-6-+----3--
--------------------
5-+-+-----4--9--9-+-
-63-5--44-8--767-+--
--4-037------++---53
--------------------
---37-7---7------44-
--3----+3--------+--
---+9-7--7-54--+----
--------------------
----58--7----+-----7

Generation = 50, Population = 111.
75-7989---95+----593
----+--3+-+6-7--+9+-
5---8-+-+--5--3++---
-----2---2--9--39--1
--+-+4+-8----++---+3
---47--67-------++-+
2-9-0-9-85+-++--278-
--3---3-36--+------3
6---+-+3--778-77--79
3--92-9----5--+-6---
-8-+-+--+--8--+--+-+
--2--0--71--6-----7-
---+---7+7--+++-2-77

Generation = 60, Population = 86.
+-+---+--7---+--89--
-0+2---8--+-+99-+++5
--+--9--+----+--+-+1
--------------------
8-+-+-+-++7--++-+7--
-----4+--+-+--+--+7-
-8+---+-+9----++59--
--------------------
-----++-2---++9-8-+9
---------69--6-+++--
6++--+9-+--+-+--+--+
--------------------
7++-----+++----7-7--

Generation = 70, Population = 137.
--+-+---+9+++++68+--
+4-7+6+9+8+-+---+--7
+------8+--++--+---2
84-2-69294+6+-9-+-+5
----+++7++-8+++++8--
--98-6-8++++++--++9-
4-++-+-5--+9-+-+89+-
1450-85348-----6----
-9-++++--++--+++--++
-6-+-4++----+---+-+-
++-+--+----+9-+-++--
---4-2--+---+-7-7---
8+--+-------+++8----

Generation = 80, Population = 66.
+----++6--+-+-+-9-+-
------+-++----+---+-
-7----+---++-+--+---
--------------------
----++-+----------+-
---+-6+--+-++-------
6-----+-+-+--+----+-
--------------------
-++--------+++--+-+-
6-9+-5--+------+--+-
+-+----++++---+--+++
--------------------
--+-+---+---+++-----

Generation = 90, Population = 140.
--+++++--++-+++-9-+9
--+++-++++-++--+-+++
-+++-++++-----++-++-
-7+-7-+---+-+8-8+-+6
+-++++-+++-+-++++---
+---+--++++--+--++--
8-+++-+-++--+++-+---
36+--+99-------77-+7
+--+-++--+-+---+--++
7-+-89----+---+--+++
+----++-++----+-++-+
-65-35-8+4-4-5-+88--
-+--++++--+---++8-+-

Generation = 100, Population = 83.
+--++---++--+++-+---
+----+-+--+-+++-+---
+-+--++-+---++----+8
--------------------
+--+--+--++--++---+-
-++-+9-++-------++--
9-+++-+----+---+++--
--------------------
-----++------+--+--+
-+-+++-+-+--++------
++---+-++--+++----+-
--------------------
+--+--+-+--++-++++--
