*** Life<ConwayCell> 10x10 ***

Generation = 0, Population = 8.
..........
..*.....*.
..*.......
..........
..........
..*.......
.*........
..........
...*......
.**.......

*** Life<ConwayCell> 7x1 ***

Generation = 0, Population = 5.
.
*
*
*
.
*
*

Generation = 1, Population = 1.
.
.
*
.
.
.
.

Generation = 2, Population = 0.
.
.
.
.
.
.
.

Generation = 3, Population = 0.
.
.
.
.
.
.
.

Generation = 4, Population = 0.
.
.
.
.
.
.
.

*** Life<ConwayCell> 9x10 ***

Generation = 0, Population = 5.
..........
..........
...*......
.....*....
..........
...*......
.........*
......*...
..........

Generation = 1, Population = 0.
..........
..........
..........
..........
..........
..........
..........
..........
..........

Generation = 2, Population = 0.
..........
..........
..........
..........
..........
..........
..........
..........
..........

Generation = 3, Population = 0.
..........
..........
..........
..........
..........
..........
..........
..........
..........

*** Life<ConwayCell> 45x30 ***

Generation = 0, Population = 10.
..............................
..........*...................
..............................
..................*...........
..............................
..............................
..............................
..............................
..............................
.....*...........*............
..............................
..............................
..............................
..............................
..............................
..............................
..............................
..............................
..............................
....................*.........
..............................
..............................
..............................
..............................
..............................
...*..........................
..............................
..............................
..............................
..............................
..............................
........*.....................
......................*.......
..............................
..............................
..............................
.......*......................
..............................
..............................
..............................
..............................
..............................
..............................
..............................
.............*................

Generation = 13, Population = 0.
..............................
..............................
..............................
..............................
..............................
..............................
..............................
..............................
..............................
..............................
..............................
..............................
..............................
..............................
..............................
..............................
..............................
..............................
..............................
..............................
..............................
..............................
..............................
..............................
..............................
..............................
..............................
..............................
..............................
..............................
..............................
..............................
..............................
..............................
..............................
..............................
..............................
..............................
..............................
..............................
..............................
..............................
..............................
..............................
..............................

*** Life<ConwayCell> 47x41 ***

Generation = 0, Population = 10.
.........................................
.........................................
.........................................
.........................................
.........................................
.........................................
.........................................
.........................................
.........................................
.........................................
...........*.............................
.........................................
.........................................
.........................................
.....*....*..............................
.........................................
.........................................
.........................................
.........................................
.........................................
.........................................
....................*.................*..
.........................................
.........................................
.........................................
.........................................
.........................................
.........................................
.........................................
.........................................
.........................................
............................*............
.........................................
.........................................
.........................................
*........................................
.........................................
.........................................
.........................................
.........................................
.........................................
.............................*...........
.........................................
.........................................
.................*.......................
.........................................
........................................*

*** Life<ConwayCell> 40x10 ***

Generation = 0, Population = 8.
..........
..........
..........
.*........
..*.......
.**.......
..........
..........
..........
..........
..........
..........
..........
..........
..........
..........
..........
..........
..........
..........
..........
..........
..........
..........
.*........
..........
..........
..........
..........
.*........
..........
..........
..........
..........
...*......
..........
..........
..........
..........
...*......

Generation = 8, Population = 4.
..........
..........
..........
..........
.**.......
.**.......
..........
..........
..........
..........
..........
..........
..........
..........
..........
..........
..........
..........
..........
..........
..........
..........
..........
..........
..........
..........
..........
..........
..........
..........
..........
..........
..........
..........
..........
..........
..........
..........
..........
..........

*** Life<ConwayCell> 66x20 ***

Generation = 0, Population = 11.
*...................
....................
....................
....................
....................
....................
....................
....................
....................
....*...............
..............*.....
....................
....................
....................
....................
....................
...................*
....................
....................
....................
....................
....................
....................
....................
....................
....................
....................
....................
....................
...................*
....................
....................
...........*........
....................
....................
....*...............
....................
....................
....................
....................
....................
....................
....................
....................
....................
....................
....................
....................
......*.............
....................
....................
....................
....................
....................
....................
..........*.........
....................
....................
.........**.........
....................
....................
....................
....................
....................
....................
....................

Generation = 17, Population = 0.
....................
....................
....................
....................
....................
....................
....................
....................
....................
....................
....................
....................
....................
....................
....................
....................
....................
....................
....................
....................
....................
....................
....................
....................
....................
....................
....................
....................
....................
....................
....................
....................
....................
....................
....................
....................
....................
....................
....................
....................
....................
....................
....................
....................
....................
....................
....................
....................
....................
....................
....................
....................
....................
....................
....................
....................
....................
....................
....................
....................
....................
....................
....................
....................
....................
....................

*** Life<ConwayCell> 7x61 ***

Generation = 0, Population = 13.
......*...*............................*......*..............
.....................................*......................*
.............................................................
....................*.....................................*..
..............................................*.....*........
.................................................*...........
..........................*.*................................

*** Life<ConwayCell> 15x7 ***

Generation = 0, Population = 25.
*......
.*..***
...*...
*....*.
*.**...
...*..*
....*..
*..*...
.....*.
.*.*...
.......
.......
......*
..**.*.
....*.*

Generation = 10, Population = 26.
.......
.......
.......
.......
..***..
..*.*..
**..*..
*....**
***...*
...*.**
.....**
.....**
....*.*
....**.
.......

*** Life<ConwayCell> 18x22 ***

Generation = 0, Population = 9.
......................
............*...*.....
...........*........*.
.*....................
............*.........
.....................*
......................
......................
......................
....*.................
......................
......................
......................
......................
........*.............
......................
......................
......................

Generation = 1, Population = 0.
......................
......................
......................
......................
......................
......................
......................
......................
......................
......................
......................
......................
......................
......................
......................
......................
......................
......................

Generation = 2, Population = 0.
......................
......................
......................
......................
......................
......................
......................
......................
......................
......................
......................
......................
......................
......................
......................
......................
......................
......................
