9

15 22
11
0 20
3 4
5 2
7 8
0 15
5 16
10 1
1 4
14 16
2 7
0 10
10 10

15 16
11
7 4
3 12
0 10
4 3
1 7
14 1
10 1
8 13
10 4
10 11
10 14
10 10

23 3
11
3 1
21 0
15 0
10 1
8 1
16 0
19 0
17 0
18 1
20 0
19 2
10 10

6 9
11
4 4
3 2
4 2
2 0
4 2
1 7
4 5
4 1
5 7
5 7
4 2
10 10

24 11
11
17 0
7 3
16 10
20 6
16 3
2 10
22 0
23 2
7 6
4 6
7 8
10 10

8 24
11
0 11
7 6
5 10
7 14
1 7
4 10
6 19
7 18
7 10
6 5
0 8
10 10

14 2
11
3 0
7 1
5 1
4 0
11 1
13 0
11 1
5 1
7 1
4 0
9 0
10 10

17 8
11
13 3
3 3
9 1
5 7
13 3
16 1
0 2
1 3
16 3
3 7
13 1
10 10

8 19
11
2 9
7 11
2 6
7 8
1 9
5 13
6 1
0 3
2 7
2 9
2 7
10 10
